{
  "data": [
    {
      "id": 1,
      "name": "John Doe",
      "email": "john.doe@example.com",
      "status": "active",
      "plan": "premium",
      "role": "admin",
      "created_at": "2023-11-01T10:00:00Z",
      "updated_at": "2023-11-20T14:30:00Z"
    },
    {
      "id": 2,
      "name": "Jane Smith",
      "email": "jane.smith@example.com",
      "status": "inactive",
      "plan": "basic",
      "role": "user",
      "created_at": "2023-10-15T09:15:00Z",
      "updated_at": "2023-11-10T12:00:00Z"
    },
    {
      "id": 3,
      "name": "Sam Wilson",
      "email": "sam.wilson@example.com",
      "status": "pending",
      "plan": "trial",
      "role": "moderator",
      "created_at": "2023-11-05T08:45:00Z",
      "updated_at": "2023-11-18T11:00:00Z"
    },
    {
      "id": 4,
      "name": "Emily Brown",
      "email": "emily.brown@example.com",
      "status": "active",
      "plan": "enterprise",
      "role": "admin",
      "created_at": "2023-11-12T14:00:00Z",
      "updated_at": "2023-11-21T16:00:00Z"
    },
    {
      "id": 5,
      "name": "Michael Green",
      "email": "michael.green@example.com",
      "status": "inactive",
      "plan": "basic",
      "role": "user",
      "created_at": "2023-10-20T10:00:00Z",
      "updated_at": "2023-11-15T14:30:00Z"
    },
    {
      "id": 6,
      "name": "Sarah White",
      "email": "sarah.white@example.com",
      "status": "pending",
      "plan": "trial",
      "role": "moderator",
      "created_at": "2023-11-10T08:30:00Z",
      "updated_at": "2023-11-18T12:00:00Z"
    },
    {
      "id": 7,
      "name": "Chris Blue",
      "email": "chris.blue@example.com",
      "status": "active",
      "plan": "enterprise",
      "role": "admin",
      "created_at": "2023-11-05T11:00:00Z",
      "updated_at": "2023-11-20T15:30:00Z"
    },
    {
      "id": 8,
      "name": "Laura Black",
      "email": "laura.black@example.com",
      "status": "inactive",
      "plan": "basic",
      "role": "user",
      "created_at": "2023-10-30T13:15:00Z",
      "updated_at": "2023-11-15T14:30:00Z"
    },
    {
      "id": 9,
      "name": "Tom Grey",
      "email": "tom.grey@example.com",
      "status": "pending",
      "plan": "trial",
      "role": "moderator",
      "created_at": "2023-11-10T09:00:00Z",
      "updated_at": "2023-11-18T11:45:00Z"
    },
    {
      "id": 10,
      "name": "Anna Violet",
      "email": "anna.violet@example.com",
      "status": "active",
      "plan": "premium",
      "role": "admin",
      "created_at": "2023-11-02T12:00:00Z",
      "updated_at": "2023-11-20T13:00:00Z"
    }
  ],
  "users": "10",
  "totalUsers": "100",
  "pagination": {
    "current_page": 1,
    "items_per_page": 10,
    "total_items": 100,
    "total_pages": 10
  }
}
